{
  "data": [
    {
      "name": "Державин Гавриил Романович",
      "years": "1743-1816",
      "birthday": "14 июля",
      "position": "поэт, государственный деятель",
      "century": 18
    },
    {
      "name": "Крылов Иван Андреевич",
      "years": "1769-1844",
      "birthday": "13 февраля",
      "position": "баснописец, публицист, издатель",
      "century": 18
    },
    {
      "name": "Пушкин Александр Сергеевич",
      "years": "1799-1837",
      "birthday": "6 июня",
      "position": "поэт, прозаик, публицист",
      "century": 19
    },
    {
      "name": "Лермонтов Михаил Юрьевич",
      "years": "1814-1841",
      "birthday": "15 октября",
      "position": "поэт, прозаик, публицист",
      "century": 19
    },
    {
      "name": "Некрасов Николай Алексеевич",
      "years": "1821-1877",
      "birthday": "10 декабря",
      "position": "поэт, прозаик, публицист",
      "century": 19
    },
    {
      "name": "Жуковский Василий Андреевич",
      "years": "1783-1852",
      "birthday": "9 февраля",
      "position": "поэт",
      "century": 19
    },
    {
      "name": "Давыдов Денис Васильевич",
      "years": "1784-1839",
      "birthday": "27 июля",
      "position": "поэт",
      "century": 19
    },
    {
      "name": "Батюшков Константин Николаевич",
      "years": "1787-1855",
      "birthday": "29 мая",
      "position": "поэт, сатирик, прозаик, переводчик",
      "century": 19
    },
    {
      "name": "Баратынский Евгений Абрамович",
      "years": "1800-1844",
      "birthday": "19 февраля",
      "position": "поэт, переводчик",
      "century": 19
    },
    {
      "name": "Тютчев Фёдор Иванович",
      "years": "1803-1873",
      "birthday": "5 декабря",
      "position": "поэт, переводчик, дипломат",
      "century": 19
    },
    {
      "name": "Кольцов Алексей Васильевич",
      "years": "1809-1842",
      "birthday": "15 октября",
      "position": "поэт, купец",
      "century": 19
    },
    {
      "name": "Фет Афанасий Афанасьевич",
      "years": "1820-1892",
      "birthday": "5 декабря",
      "position": "поэт, переводчик, прозаик, мемуарист",
      "century": 19
    }
  ]
}